Clase 9
…
Información sobre el modelo.

```r
glance(ajuste_lm) %>% 
  tibble::as_tibble()
```
Información sobre el ajuste del modelo. Esta función agrega los valores ajustados, los residuales y otros al data frame.

```r
info_ajuste_lm<-augment_columns(ajuste_lm, dragones)
info_ajuste_lm
```

```
## # A tibble: 480 x 11
##    calificacion tamanio montania sitio .fitted .se.fit  .resid    .hat .sigma
##           <dbl>   <dbl> <chr>    <chr>   <dbl>   <dbl>   <dbl>   <dbl>  <dbl>
##  1        16.1     166. Bavarian a        30.5    2.35 -14.4   0.0122    21.2
##  2        33.9     168. Bavarian a        31.7    2.24   2.23  0.0111    21.2
##  3         6.04    166. Bavarian a        30.7    2.33 -24.7   0.0121    21.2
##  4        18.8     168. Bavarian a        31.7    2.23 -12.9   0.0111    21.2
##  5        33.9     170. Bavarian a        33.0    2.11   0.875 0.00989   21.2
##  6        47.0     169. Bavarian a        32.3    2.18  14.8   0.0105    21.2
##  7         2.56    170. Bavarian a        32.8    2.13 -30.2   0.0101    21.2
##  8         3.88    164. Bavarian a        29.9    2.41 -26.0   0.0129    21.2
##  9         3.60    168. Bavarian a        31.6    2.24 -28.0   0.0112    21.2
## 10         7.36    180. Bavarian a        38.3    1.62 -31.0   0.00583   21.2
## # ... with 470 more rows, and 2 more variables: .cooksd <dbl>, .std.resid <dbl>
```
…
---

## 1.10. Efecto de la montaña

Ver información del ajuste: valores ajustados (.fitted), residuales (.resid)
**augment_columns** agrega los valores ajustados, los residuales y otros al data frame.

```r
info_ajuste_lmer<- augment_columns(ajuste_lmer,dragones)
info_ajuste_lmer
```

```
## # A tibble: 480 x 8
##    calificacion tamanio montania sitio .fitted .resid   .hat  .cooksd
##           <dbl>   <dbl> <chr>    <chr>   <dbl>  <dbl>  <dbl>    <dbl>
##  1        16.1     166. Bavarian a        22.9  -6.78 0.0224 0.00240 
##  2        33.9     168. Bavarian a        23.0  10.9  0.0209 0.00577 
##  3         6.04    166. Bavarian a        22.9 -16.9  0.0221 0.0147  
##  4        18.8     168. Bavarian a        23.0  -4.16 0.0208 0.000836
##  5        33.9     170. Bavarian a        23.1  10.8  0.0194 0.00524 
##  6        47.0     169. Bavarian a        23.0  24.0  0.0201 0.0270  
##  7         2.56    170. Bavarian a        23.1 -20.5  0.0195 0.0191  
##  8         3.88    164. Bavarian a        22.9 -19.0  0.0233 0.0197  
##  9         3.60    168. Bavarian a        23.0 -19.4  0.0209 0.0183  
## 10         7.36    180. Bavarian a        23.4 -16.0  0.0165 0.00980 
## # ... with 470 more rows
```
…
