Clase 1
…
---

# 3.4. Filtrar
### filter(<=)

```r
Pingus %>%
* filter(largo_pico_mm <= 39.1)
```

```
## # A tibble: 83 x 8
##    especie isla  largo_pico_mm alto_pico_mm largo_aleta_mm masa_corporal_g sexo 
##    <fct>   <fct>         <dbl>        <dbl>          <int>           <int> <fct>
##  1 Adelia  Torg~          39.1         18.7            181            3750 macho
##  2 Adelia  Torg~          36.7         19.3            193            3450 hemb~
##  3 Adelia  Torg~          38.9         17.8            181            3625 hemb~
##  4 Adelia  Torg~          34.1         18.1            193            3475 <NA> 
##  5 Adelia  Torg~          37.8         17.1            186            3300 <NA> 
##  6 Adelia  Torg~          37.8         17.3            180            3700 <NA> 
##  7 Adelia  Torg~          38.6         21.2            191            3800 macho
##  8 Adelia  Torg~          34.6         21.1            198            4400 macho
##  9 Adelia  Torg~          36.6         17.8            185            3700 hemb~
## 10 Adelia  Torg~          38.7         19              195            3450 hemb~
## # ... with 73 more rows, and 1 more variable: anio <int>
```

---

# 3.4. Filtrar
### filter(>=)

```r
Pingus %>%
* filter(largo_pico_mm >= 39.1)
```

```
## # A tibble: 260 x 8
##    especie isla  largo_pico_mm alto_pico_mm largo_aleta_mm masa_corporal_g sexo 
##    <fct>   <fct>         <dbl>        <dbl>          <int>           <int> <fct>
##  1 Adelia  Torg~          39.1         18.7            181            3750 macho
##  2 Adelia  Torg~          39.5         17.4            186            3800 hemb~
##  3 Adelia  Torg~          40.3         18              195            3250 hemb~
##  4 Adelia  Torg~          39.3         20.6            190            3650 macho
##  5 Adelia  Torg~          39.2         19.6            195            4675 macho
##  6 Adelia  Torg~          42           20.2            190            4250 <NA> 
##  7 Adelia  Torg~          41.1         17.6            182            3200 hemb~
##  8 Adelia  Torg~          42.5         20.7            197            4500 macho
##  9 Adelia  Torg~          46           21.5            194            4200 macho
## 10 Adelia  Bisc~          40.6         18.6            183            3550 macho
## # ... with 250 more rows, and 1 more variable: anio <int>
```

---

# 3.4. Filtrar
### filter(&)

```r
Pingus %>%
* filter(isla == 'Biscoe' & especie =='Adelia')
```

```
## # A tibble: 44 x 8
##    especie isla  largo_pico_mm alto_pico_mm largo_aleta_mm masa_corporal_g sexo 
##    <fct>   <fct>         <dbl>        <dbl>          <int>           <int> <fct>
##  1 Adelia  Bisc~          37.8         18.3            174            3400 hemb~
##  2 Adelia  Bisc~          37.7         18.7            180            3600 macho
##  3 Adelia  Bisc~          35.9         19.2            189            3800 hemb~
##  4 Adelia  Bisc~          38.2         18.1            185            3950 macho
##  5 Adelia  Bisc~          38.8         17.2            180            3800 macho
##  6 Adelia  Bisc~          35.3         18.9            187            3800 hemb~
##  7 Adelia  Bisc~          40.6         18.6            183            3550 macho
##  8 Adelia  Bisc~          40.5         17.9            187            3200 hemb~
##  9 Adelia  Bisc~          37.9         18.6            172            3150 hemb~
## 10 Adelia  Bisc~          40.5         18.9            180            3950 macho
## # ... with 34 more rows, and 1 more variable: anio <int>
```
…
