Clase 4
…
---

## 4.15. select(:)

Tambi칠n se pueden usar cadenas de caracteres (strings).  
Tanto usando como termina el nombre de la columna.

```r
Pingus %>% 
  select(ends_with("mm"))
```

```
## # A tibble: 344 x 3
##    largo_pico_mm alto_pico_mm largo_aleta_mm
##            <dbl>        <dbl>          <int>
##  1          39.1         18.7            181
##  2          39.5         17.4            186
##  3          40.3         18              195
##  4          NA           NA               NA
##  5          36.7         19.3            193
##  6          39.3         20.6            190
##  7          38.9         17.8            181
##  8          39.2         19.6            195
##  9          34.1         18.1            193
## 10          42           20.2            190
## # ... with 334 more rows
```

---

## 4.16. select(:)

Tambi칠n se pueden usar cadenas de caracteres (strings).  
Como seleccionando como inicia el nombre de la columna.  

```r
Pingus %>% 
  select(starts_with("masa"))
```

```
## # A tibble: 344 x 1
##    masa_corporal_g
##              <int>
##  1            3750
##  2            3800
##  3            3250
##  4              NA
##  5            3450
##  6            3650
##  7            3625
##  8            4675
##  9            3475
## 10            4250
## # ... with 334 more rows
```
…
