Clase 3
…
---

# 6.4. Unite

Para unir informacion de dos columnas en una columna.

```r
(Pingus<-Pingus %>% 
  unite(col = especie_isla,
        c("especie", "isla"),
        sep = ": "))
```

```
## # A tibble: 344 x 7
##    especie_isla largo_pico_mm alto_pico_mm largo_aleta_mm masa_corporal_g sexo 
##    <chr>                <dbl>        <dbl>          <int>           <int> <fct>
##  1 Adelia: Tor~          39.1         18.7            181            3750 macho
##  2 Adelia: Tor~          39.5         17.4            186            3800 hemb~
##  3 Adelia: Tor~          40.3         18              195            3250 hemb~
##  4 Adelia: Tor~          NA           NA               NA              NA <NA> 
##  5 Adelia: Tor~          36.7         19.3            193            3450 hemb~
##  6 Adelia: Tor~          39.3         20.6            190            3650 macho
##  7 Adelia: Tor~          38.9         17.8            181            3625 hemb~
##  8 Adelia: Tor~          39.2         19.6            195            4675 macho
##  9 Adelia: Tor~          34.1         18.1            193            3475 <NA> 
## 10 Adelia: Tor~          42           20.2            190            4250 <NA> 
## # ... with 334 more rows, and 1 more variable: anio <int>
```
…
```r
(Pingus<-Pingus %>% 
  separate(col = especie_isla,
           into = c("especie", "isla"),
           sep = ":",
           remove = FALSE))
```

```
## # A tibble: 344 x 9
##    especie_isla especie isla  largo_pico_mm alto_pico_mm largo_aleta_mm
##    <chr>        <chr>   <chr>         <dbl>        <dbl>          <int>
##  1 Adelia: Tor~ Adelia  " To~          39.1         18.7            181
##  2 Adelia: Tor~ Adelia  " To~          39.5         17.4            186
##  3 Adelia: Tor~ Adelia  " To~          40.3         18              195
##  4 Adelia: Tor~ Adelia  " To~          NA           NA               NA
##  5 Adelia: Tor~ Adelia  " To~          36.7         19.3            193
##  6 Adelia: Tor~ Adelia  " To~          39.3         20.6            190
##  7 Adelia: Tor~ Adelia  " To~          38.9         17.8            181
##  8 Adelia: Tor~ Adelia  " To~          39.2         19.6            195
##  9 Adelia: Tor~ Adelia  " To~          34.1         18.1            193
## 10 Adelia: Tor~ Adelia  " To~          42           20.2            190
## # ... with 334 more rows, and 3 more variables: masa_corporal_g <int>,
## #   sexo <fct>, anio <int>
```

---

# 6.6. Rename
Cambiar el nombre de la columna.  
El nuevo nombre se pone primero y luego se pone el nombre anterior.

```r
Pingus %>% 
  rename(peso = masa_corporal_g)
```

```
## # A tibble: 344 x 9
##    especie_isla especie isla  largo_pico_mm alto_pico_mm largo_aleta_mm  peso
##    <chr>        <chr>   <chr>         <dbl>        <dbl>          <int> <int>
##  1 Adelia: Tor~ Adelia  " To~          39.1         18.7            181  3750
##  2 Adelia: Tor~ Adelia  " To~          39.5         17.4            186  3800
##  3 Adelia: Tor~ Adelia  " To~          40.3         18              195  3250
##  4 Adelia: Tor~ Adelia  " To~          NA           NA               NA    NA
##  5 Adelia: Tor~ Adelia  " To~          36.7         19.3            193  3450
##  6 Adelia: Tor~ Adelia  " To~          39.3         20.6            190  3650
##  7 Adelia: Tor~ Adelia  " To~          38.9         17.8            181  3625
##  8 Adelia: Tor~ Adelia  " To~          39.2         19.6            195  4675
##  9 Adelia: Tor~ Adelia  " To~          34.1         18.1            193  3475
## 10 Adelia: Tor~ Adelia  " To~          42           20.2            190  4250
## # ... with 334 more rows, and 2 more variables: sexo <fct>, anio <int>
```

---
# 6.6. Rename
Cambiar el nombre de varias columnas.  
El nuevo nombre se pone primero y luego se pone el nombre anterior.

```r
Pingus %>% 
  rename(peso=masa_corporal_g, 
         temporada=anio)
```

```
## # A tibble: 344 x 9
##    especie_isla especie isla  largo_pico_mm alto_pico_mm largo_aleta_mm  peso
##    <chr>        <chr>   <chr>         <dbl>        <dbl>          <int> <int>
##  1 Adelia: Tor~ Adelia  " To~          39.1         18.7            181  3750
##  2 Adelia: Tor~ Adelia  " To~          39.5         17.4            186  3800
##  3 Adelia: Tor~ Adelia  " To~          40.3         18              195  3250
##  4 Adelia: Tor~ Adelia  " To~          NA           NA               NA    NA
##  5 Adelia: Tor~ Adelia  " To~          36.7         19.3            193  3450
##  6 Adelia: Tor~ Adelia  " To~          39.3         20.6            190  3650
##  7 Adelia: Tor~ Adelia  " To~          38.9         17.8            181  3625
##  8 Adelia: Tor~ Adelia  " To~          39.2         19.6            195  4675
##  9 Adelia: Tor~ Adelia  " To~          34.1         18.1            193  3475
## 10 Adelia: Tor~ Adelia  " To~          42           20.2            190  4250
## # ... with 334 more rows, and 2 more variables: sexo <fct>, temporada <int>
```

---

# 6.7. Relocate

Mover columnas al inicio del data frame.

```r
Pingus %>% 
  relocate(sexo, anio)
```

```
## # A tibble: 344 x 9
##    sexo   anio especie_isla especie isla  largo_pico_mm alto_pico_mm
##    <fct> <int> <chr>        <chr>   <chr>         <dbl>        <dbl>
##  1 macho  2007 Adelia: Tor~ Adelia  " To~          39.1         18.7
##  2 hemb~  2007 Adelia: Tor~ Adelia  " To~          39.5         17.4
##  3 hemb~  2007 Adelia: Tor~ Adelia  " To~          40.3         18  
##  4 <NA>   2007 Adelia: Tor~ Adelia  " To~          NA           NA  
##  5 hemb~  2007 Adelia: Tor~ Adelia  " To~          36.7         19.3
##  6 macho  2007 Adelia: Tor~ Adelia  " To~          39.3         20.6
##  7 hemb~  2007 Adelia: Tor~ Adelia  " To~          38.9         17.8
##  8 macho  2007 Adelia: Tor~ Adelia  " To~          39.2         19.6
##  9 <NA>   2007 Adelia: Tor~ Adelia  " To~          34.1         18.1
## 10 <NA>   2007 Adelia: Tor~ Adelia  " To~          42           20.2
## # ... with 334 more rows, and 2 more variables: largo_aleta_mm <int>,
## #   masa_corporal_g <int>
```
…
---

## 6.9. Ejercicios
### pivot_wider()

```r
PingusAncho<-Pingus %>% 
  pivot_wider(names_from = especie, 
              values_from = largo_pico_mm)
PingusAncho
```

```
## # A tibble: 343 x 9
##    isla  alto_pico_mm largo_aleta_mm masa_corporal_g sexo   anio Adelia Papúa
##    <fct>        <dbl>          <int>           <int> <fct> <int> <list> <lis>
##  1 Torg~         18.7            181            3750 macho  2007 <dbl ~ <NUL~
##  2 Torg~         17.4            186            3800 hemb~  2007 <dbl ~ <NUL~
##  3 Torg~         18              195            3250 hemb~  2007 <dbl ~ <NUL~
##  4 Torg~         NA               NA              NA <NA>   2007 <dbl ~ <NUL~
##  5 Torg~         19.3            193            3450 hemb~  2007 <dbl ~ <NUL~
##  6 Torg~         20.6            190            3650 macho  2007 <dbl ~ <NUL~
##  7 Torg~         17.8            181            3625 hemb~  2007 <dbl ~ <NUL~
##  8 Torg~         19.6            195            4675 macho  2007 <dbl ~ <NUL~
##  9 Torg~         18.1            193            3475 <NA>   2007 <dbl ~ <NUL~
## 10 Torg~         20.2            190            4250 <NA>   2007 <dbl ~ <NUL~
## # ... with 333 more rows, and 1 more variable: Barbijo <list>
```
…
